{
    "content": [
        {
            "postId": 52,
            "thumbImgUrl": null,
            "headerImgUrl": null,
            "title": null,
            "postTime": "2023-08-24 14:31:32",
            "content": "logstash logstash logstash logstash logstash logstash logstash logstash logstash logstash logstash logstash logstash logstash logstash ",
            "summary": null,
            "originalURL": null,
            "postType": "0",
            "updateTime": "2023-08-24 14:31:32",
            "readTimes": 1,
            "likedTimes": 0,
            "commentTimes": 0,
            "userId": 2,
            "email": "admin@126.com",
            "nickName": "admin",
            "enableComment": "Y",
            "status": 4,
            "fileUploadEntities": [],
            "lastModifyTime": "2023-08-24 14:31:32"
        },
        {
            "postId": 51,
            "thumbImgUrl": null,
            "headerImgUrl": null,
            "title": "",
            "postTime": "2023-08-23 19:42:56",
            "content": "測試 SpringBoot3.1.2",
            "summary": null,
            "originalURL": "",
            "postType": "0",
            "updateTime": "2023-08-23 19:42:56",
            "readTimes": 1,
            "likedTimes": 0,
            "commentTimes": 0,
            "userId": 2,
            "email": "admin@126.com",
            "nickName": "admin",
            "enableComment": "Y",
            "status": 4,
            "fileUploadEntities": [
                {
                    "id": 351,
                    "fileName": "54d728a9909de0de64a7c32d54f439f37418d2399c606cb6b96d075057d99e4f.mp4",
                    "displayName": "flower",
                    "fileSuffix": "mp4",
                    "fileSize": 1128375,
                    "path": "C:\\nicefish\\upload\\54d728a9909de0de64a7c32d54f439f37418d2399c606cb6b96d075057d99e4f.mp4",
                    "url": null,
                    "fileDesc": null,
                    "displayOrder": 1,
                    "upTime": "2023-08-23 19:42:36",
                    "userId": null
                }
            ],
            "lastModifyTime": "2023-08-23 19:42:56"
        },
        {
            "postId": 50,
            "thumbImgUrl": null,
            "headerImgUrl": null,
            "title": "\"\"",
            "postTime": "2023-08-22 20:14:16",
            "content": "logstash",
            "summary": null,
            "originalURL": null,
            "postType": "0",
            "updateTime": "2023-08-22 20:14:16",
            "readTimes": 1,
            "likedTimes": 0,
            "commentTimes": 0,
            "userId": 2,
            "email": "admin@126.com",
            "nickName": "admin",
            "enableComment": "1",
            "status": 4,
            "fileUploadEntities": [],
            "lastModifyTime": "2023-08-22 20:14:16"
        },
        {
            "postId": 49,
            "thumbImgUrl": null,
            "headerImgUrl": null,
            "title": "\"\"",
            "postTime": "2023-08-22 19:45:24",
            "content": "logstash, logstash,logstash,logstash,logstash,logstash,logstash,logstash,logstash,logstash,logstash,",
            "summary": null,
            "originalURL": null,
            "postType": "0",
            "updateTime": "2023-08-22 19:45:24",
            "readTimes": 1,
            "likedTimes": 0,
            "commentTimes": 0,
            "userId": 2,
            "email": "admin@126.com",
            "nickName": "admin",
            "enableComment": "1",
            "status": 4,
            "fileUploadEntities": [],
            "lastModifyTime": "2023-08-22 19:45:24"
        },
        {
            "postId": 48,
            "thumbImgUrl": null,
            "headerImgUrl": null,
            "title": "",
            "postTime": "2023-08-21 12:13:13",
            "content": "testtesttesttesttesttesttesttesttesttesttest",
            "summary": null,
            "originalURL": "",
            "postType": "0",
            "updateTime": "2023-08-21 12:13:13",
            "readTimes": 1,
            "likedTimes": 0,
            "commentTimes": 0,
            "userId": 4,
            "email": "user1@126.com",
            "nickName": "测试用户-1",
            "enableComment": "Y",
            "status": 4,
            "fileUploadEntities": [
                {
                    "id": 348,
                    "fileName": "3cb556c93216916c8ea3e086e1b7fbedddc5351768b0dd3c416303873a148eab.mp4",
                    "displayName": "flower",
                    "fileSuffix": "mp4",
                    "fileSize": 1128375,
                    "path": "C:\\nicefish\\upload\\3cb556c93216916c8ea3e086e1b7fbedddc5351768b0dd3c416303873a148eab.mp4",
                    "url": null,
                    "fileDesc": null,
                    "displayOrder": 1,
                    "upTime": "2023-08-21 12:13:04",
                    "userId": null
                }
            ],
            "lastModifyTime": "2023-08-21 12:13:13"
        },
        {
            "postId": 47,
            "thumbImgUrl": null,
            "headerImgUrl": null,
            "title": "",
            "postTime": "2023-08-14 12:27:17",
            "content": "啊",
            "summary": null,
            "originalURL": "",
            "postType": "0",
            "updateTime": "2023-08-14 12:27:17",
            "readTimes": 1,
            "likedTimes": 0,
            "commentTimes": 0,
            "userId": 2,
            "email": "admin@126.com",
            "nickName": "admin",
            "enableComment": "Y",
            "status": 4,
            "fileUploadEntities": [
                {
                    "id": 347,
                    "fileName": "8b80cac1545a56a74fe9114a8ddbb6678aa45e03f6620dd063ac75e58b03b46a.mp4",
                    "displayName": "flower",
                    "fileSuffix": "mp4",
                    "fileSize": 1128375,
                    "path": "C:\\nicefish\\upload\\8b80cac1545a56a74fe9114a8ddbb6678aa45e03f6620dd063ac75e58b03b46a.mp4",
                    "url": null,
                    "fileDesc": null,
                    "displayOrder": 1,
                    "upTime": "2023-08-14 12:27:15",
                    "userId": null
                }
            ],
            "lastModifyTime": "2023-08-14 12:27:17"
        },
        {
            "postId": 46,
            "thumbImgUrl": null,
            "headerImgUrl": null,
            "title": "",
            "postTime": "2023-08-12 13:32:17",
            "content": "测试表单校验",
            "summary": null,
            "originalURL": "",
            "postType": "0",
            "updateTime": "2023-08-12 13:32:17",
            "readTimes": 1,
            "likedTimes": 0,
            "commentTimes": 0,
            "userId": 2,
            "email": "admin@126.com",
            "nickName": "admin",
            "enableComment": "Y",
            "status": 4,
            "fileUploadEntities": [
                {
                    "id": 346,
                    "fileName": "6534212b8279f085b0452511c3ca638c86eddf01b2d62e7e7c4f502f59f43a45.mp4",
                    "displayName": "flower",
                    "fileSuffix": "mp4",
                    "fileSize": 1128375,
                    "path": "C:\\nicefish\\upload\\6534212b8279f085b0452511c3ca638c86eddf01b2d62e7e7c4f502f59f43a45.mp4",
                    "url": null,
                    "fileDesc": null,
                    "displayOrder": 1,
                    "upTime": "2023-08-12 13:32:04",
                    "userId": null
                }
            ],
            "lastModifyTime": "2023-08-12 13:32:17"
        },
        {
            "postId": 45,
            "thumbImgUrl": null,
            "headerImgUrl": null,
            "title": "",
            "postTime": "2023-08-09 19:48:04",
            "content": "测试视频内容测试视频内容测试视频内容测试视频内容测试视频内容测试视频内容测试视频内容测试视频内容",
            "summary": null,
            "originalURL": "",
            "postType": "0",
            "updateTime": "2023-08-09 19:48:04",
            "readTimes": 1,
            "likedTimes": 0,
            "commentTimes": 0,
            "userId": 2,
            "email": "admin@126.com",
            "nickName": "admin",
            "enableComment": "Y",
            "status": 4,
            "fileUploadEntities": [
                {
                    "id": 345,
                    "fileName": "f4e40210a40f6c2d29f5ec1651351105b17b9780567c10b80d5b7bca6a2e2467.mp4",
                    "displayName": "flower",
                    "fileSuffix": "mp4",
                    "fileSize": 1128375,
                    "path": "C:\\nicefish\\upload\\f4e40210a40f6c2d29f5ec1651351105b17b9780567c10b80d5b7bca6a2e2467.mp4",
                    "url": null,
                    "fileDesc": null,
                    "displayOrder": 1,
                    "upTime": "2023-08-09 19:47:54",
                    "userId": null
                }
            ],
            "lastModifyTime": "2023-08-09 19:48:04"
        },
        {
            "postId": 44,
            "thumbImgUrl": null,
            "headerImgUrl": null,
            "title": "",
            "postTime": "2023-08-09 19:18:58",
            "content": "测试发布视频内容测试发布视频内容测试发布视频内容测试发布视频内容测试发布视频内容",
            "summary": null,
            "originalURL": "",
            "postType": "0",
            "updateTime": "2023-08-09 19:18:58",
            "readTimes": 1,
            "likedTimes": 0,
            "commentTimes": 0,
            "userId": 2,
            "email": "admin@126.com",
            "nickName": "admin",
            "enableComment": "Y",
            "status": 4,
            "fileUploadEntities": [
                {
                    "id": 344,
                    "fileName": "bad30b4a2c6856683ae15446c9a8536ec13060d9f5f3b7816476aa7a8f004eef.mp4",
                    "displayName": "flower",
                    "fileSuffix": "mp4",
                    "fileSize": 1128375,
                    "path": "C:\\nicefish\\upload\\bad30b4a2c6856683ae15446c9a8536ec13060d9f5f3b7816476aa7a8f004eef.mp4",
                    "url": null,
                    "fileDesc": null,
                    "displayOrder": 1,
                    "upTime": "2023-08-09 19:18:44",
                    "userId": null
                }
            ],
            "lastModifyTime": "2023-08-09 19:18:58"
        },
        {
            "postId": 43,
            "thumbImgUrl": null,
            "headerImgUrl": null,
            "title": "",
            "postTime": "2023-08-08 18:26:03",
            "content": "测试发图",
            "summary": null,
            "originalURL": "",
            "postType": "0",
            "updateTime": "2023-08-08 18:26:03",
            "readTimes": 1,
            "likedTimes": 0,
            "commentTimes": 0,
            "userId": 2,
            "email": "admin@126.com",
            "nickName": "admin",
            "enableComment": "Y",
            "status": 4,
            "fileUploadEntities": [
                {
                    "id": 332,
                    "fileName": "51b6d23616ce9f36cf1824777477dd4958937f1654eed0ae5adb64a26fc7230b.png",
                    "displayName": "1690554964422",
                    "fileSuffix": "png",
                    "fileSize": 9099,
                    "path": "C:\\nicefish\\upload\\51b6d23616ce9f36cf1824777477dd4958937f1654eed0ae5adb64a26fc7230b.png",
                    "url": null,
                    "fileDesc": null,
                    "displayOrder": 1,
                    "upTime": "2023-08-08 18:25:53",
                    "userId": null
                },
                {
                    "id": 333,
                    "fileName": "cf016e1f407bea6c73a7918012d4e2c48743fb1541beda7c739f15c350b30370.png",
                    "displayName": "1690554964542",
                    "fileSuffix": "png",
                    "fileSize": 11864,
                    "path": "C:\\nicefish\\upload\\cf016e1f407bea6c73a7918012d4e2c48743fb1541beda7c739f15c350b30370.png",
                    "url": null,
                    "fileDesc": null,
                    "displayOrder": 1,
                    "upTime": "2023-08-08 18:25:57",
                    "userId": null
                }
            ],
            "lastModifyTime": "2023-08-08 18:26:03"
        },
        {
            "postId": 42,
            "thumbImgUrl": null,
            "headerImgUrl": null,
            "title": "",
            "postTime": "2023-07-29 23:07:41",
            "content": "测试图片轮播测试图片轮播测试图片轮播",
            "summary": null,
            "originalURL": "",
            "postType": "0",
            "updateTime": "2023-07-29 23:07:41",
            "readTimes": 1,
            "likedTimes": 0,
            "commentTimes": 0,
            "userId": 2,
            "email": "admin@126.com",
            "nickName": "admin",
            "enableComment": "Y",
            "status": 4,
            "fileUploadEntities": [
                {
                    "id": 326,
                    "fileName": "1690643250922.jpg",
                    "displayName": "1690612819222",
                    "fileSuffix": "jpg",
                    "fileSize": 1254042,
                    "path": "C:\\nicefish\\upload\\1690643250922.jpg",
                    "url": null,
                    "fileDesc": null,
                    "displayOrder": 1,
                    "upTime": "2023-07-29 23:07:30",
                    "userId": null
                },
                {
                    "id": 327,
                    "fileName": "1690643251080.jpg",
                    "displayName": "1690612833275",
                    "fileSuffix": "jpg",
                    "fileSize": 1465019,
                    "path": "C:\\nicefish\\upload\\1690643251080.jpg",
                    "url": null,
                    "fileDesc": null,
                    "displayOrder": 1,
                    "upTime": "2023-07-29 23:07:31",
                    "userId": null
                },
                {
                    "id": 328,
                    "fileName": "1690643251086.jpg",
                    "displayName": "1690612846330",
                    "fileSuffix": "jpg",
                    "fileSize": 2556197,
                    "path": "C:\\nicefish\\upload\\1690643251086.jpg",
                    "url": null,
                    "fileDesc": null,
                    "displayOrder": 1,
                    "upTime": "2023-07-29 23:07:31",
                    "userId": null
                },
                {
                    "id": 329,
                    "fileName": "1690643251089.jpg",
                    "displayName": "1690612953697",
                    "fileSuffix": "jpg",
                    "fileSize": 1506525,
                    "path": "C:\\nicefish\\upload\\1690643251089.jpg",
                    "url": null,
                    "fileDesc": null,
                    "displayOrder": 1,
                    "upTime": "2023-07-29 23:07:31",
                    "userId": null
                },
                {
                    "id": 330,
                    "fileName": "1690643251093.jpg",
                    "displayName": "1690612972485",
                    "fileSuffix": "jpg",
                    "fileSize": 1166755,
                    "path": "C:\\nicefish\\upload\\1690643251093.jpg",
                    "url": null,
                    "fileDesc": null,
                    "displayOrder": 1,
                    "upTime": "2023-07-29 23:07:31",
                    "userId": null
                },
                {
                    "id": 331,
                    "fileName": "1690643251096.jpg",
                    "displayName": "1690613015458",
                    "fileSuffix": "jpg",
                    "fileSize": 1465019,
                    "path": "C:\\nicefish\\upload\\1690643251096.jpg",
                    "url": null,
                    "fileDesc": null,
                    "displayOrder": 1,
                    "upTime": "2023-07-29 23:07:31",
                    "userId": null
                }
            ],
            "lastModifyTime": "2023-07-29 23:07:41"
        },
        {
            "postId": 41,
            "thumbImgUrl": null,
            "headerImgUrl": null,
            "title": "",
            "postTime": "2023-07-29 14:42:59",
            "content": "测试内容11测试内容11测试内容11测试内容11测试内容11测试内容11测试内容11测试内容11测试内容11测试内容11测试内容11测试内容11测试内容11测试内容11",
            "summary": null,
            "originalURL": "",
            "postType": "0",
            "updateTime": "2023-07-29 14:42:59",
            "readTimes": 1,
            "likedTimes": 0,
            "commentTimes": 0,
            "userId": 2,
            "email": "admin@126.com",
            "nickName": "admin",
            "enableComment": "Y",
            "status": 4,
            "fileUploadEntities": [
                {
                    "id": 324,
                    "fileName": "1690612972485.jpg",
                    "displayName": "brian-gomes-n_qeUPl4QCM-unsplash",
                    "fileSuffix": "jpg",
                    "fileSize": 1166755,
                    "path": "C:\\nicefish\\upload\\1690612972485.jpg",
                    "url": null,
                    "fileDesc": null,
                    "displayOrder": 1,
                    "upTime": "2023-07-29 14:42:52",
                    "userId": null
                }
            ],
            "lastModifyTime": "2023-07-29 14:42:59"
        },
        {
            "postId": 40,
            "thumbImgUrl": null,
            "headerImgUrl": null,
            "title": "",
            "postTime": "2023-07-29 14:42:41",
            "content": "测试内容10测试内容10测试内容10测试内容10测试内容10测试内容10测试内容10测试内容10测试内容10测试内容10",
            "summary": null,
            "originalURL": "",
            "postType": "0",
            "updateTime": "2023-07-29 14:42:41",
            "readTimes": 1,
            "likedTimes": 0,
            "commentTimes": 0,
            "userId": 2,
            "email": "admin@126.com",
            "nickName": "admin",
            "enableComment": "Y",
            "status": 4,
            "fileUploadEntities": [
                {
                    "id": 323,
                    "fileName": "1690612953697.jpg",
                    "displayName": "imaad-whd-YEiqu8XitRI-unsplash",
                    "fileSuffix": "jpg",
                    "fileSize": 1506525,
                    "path": "C:\\nicefish\\upload\\1690612953697.jpg",
                    "url": null,
                    "fileDesc": null,
                    "displayOrder": 1,
                    "upTime": "2023-07-29 14:42:33",
                    "userId": null
                }
            ],
            "lastModifyTime": "2023-07-29 14:42:41"
        },
        {
            "postId": 39,
            "thumbImgUrl": null,
            "headerImgUrl": null,
            "title": "",
            "postTime": "2023-07-29 14:40:54",
            "content": "测试内容9测试内容9测试内容9测试内容9测试内容9测试内容9测试内容9测试内容9测试内容9测试内容9测试内容9测试内容9测试内容9测试内容9测试内容9测试内容9测试内容9测试内容9测试内容9测试内容9测试内容9测试内容9测试内容9测试内容9测试内容9测试内容9测试内容9测试内容9测试内容9测试内容9测试内容9测试内容9测试内容9测试内容9测试内容9测试内容9测试内容9测试内容9测试内容9测试内容9测试内容9测试内容9测试内容9测试内容9测试内容9测试内容9测试内容9测试内容9测试内容9测试内容9测试内容9测试内容9测试内容9测试内容9测试内容9测试内容9测试内容9测试内容9测试内容9",
            "summary": null,
            "originalURL": "",
            "postType": "0",
            "updateTime": "2023-07-29 14:40:54",
            "readTimes": 1,
            "likedTimes": 0,
            "commentTimes": 0,
            "userId": 2,
            "email": "admin@126.com",
            "nickName": "admin",
            "enableComment": "Y",
            "status": 4,
            "fileUploadEntities": [
                {
                    "id": 322,
                    "fileName": "1690612846330.jpg",
                    "displayName": "prague-conference-center-1056491",
                    "fileSuffix": "jpg",
                    "fileSize": 2556197,
                    "path": "C:\\nicefish\\upload\\1690612846330.jpg",
                    "url": null,
                    "fileDesc": null,
                    "displayOrder": 1,
                    "upTime": "2023-07-29 14:40:46",
                    "userId": null
                }
            ],
            "lastModifyTime": "2023-07-29 14:40:54"
        },
        {
            "postId": 38,
            "thumbImgUrl": null,
            "headerImgUrl": null,
            "title": "",
            "postTime": "2023-07-29 14:40:39",
            "content": "测试内容7测试内容7测试内容7测试内容7测试内容7测试内容7测试内容7测试内容7测试内容7测试内容7测试内容7测试内容7测试内容7测试内容7测试内容7测试内容7测试内容7测试内容7测试内容7测试内容7测试内容7测试内容7测试内容7测试内容7测试内容7测试内容7测试内容7测试内容7测试内容7测试内容7",
            "summary": null,
            "originalURL": "",
            "postType": "0",
            "updateTime": "2023-07-29 14:40:39",
            "readTimes": 1,
            "likedTimes": 0,
            "commentTimes": 0,
            "userId": 2,
            "email": "admin@126.com",
            "nickName": "admin",
            "enableComment": "Y",
            "status": 4,
            "fileUploadEntities": [
                {
                    "id": 321,
                    "fileName": "1690612833275.jpg",
                    "displayName": "peppers-falling-into-water-1142701",
                    "fileSuffix": "jpg",
                    "fileSize": 1465019,
                    "path": "C:\\nicefish\\upload\\1690612833275.jpg",
                    "url": null,
                    "fileDesc": null,
                    "displayOrder": 1,
                    "upTime": "2023-07-29 14:40:33",
                    "userId": null
                }
            ],
            "lastModifyTime": "2023-07-29 14:40:39"
        },
        {
            "postId": 37,
            "thumbImgUrl": null,
            "headerImgUrl": null,
            "title": "",
            "postTime": "2023-07-29 14:40:26",
            "content": "测试内容6测试内容6测试内容6测试内容6测试内容6测试内容6测试内容6测试内容6测试内容6测试内容6测试内容6测试内容6测试内容6测试内容6测试内容6测试内容6测试内容6测试内容6测试内容6测试内容6测试内容6测试内容6测试内容6测试内容6测试内容6",
            "summary": null,
            "originalURL": "",
            "postType": "0",
            "updateTime": "2023-07-29 14:40:26",
            "readTimes": 1,
            "likedTimes": 0,
            "commentTimes": 0,
            "userId": 2,
            "email": "admin@126.com",
            "nickName": "admin",
            "enableComment": "Y",
            "status": 4,
            "fileUploadEntities": [
                {
                    "id": 320,
                    "fileName": "1690612819222.jpg",
                    "displayName": "people-1057167",
                    "fileSuffix": "jpg",
                    "fileSize": 1254042,
                    "path": "C:\\nicefish\\upload\\1690612819222.jpg",
                    "url": null,
                    "fileDesc": null,
                    "displayOrder": 1,
                    "upTime": "2023-07-29 14:40:19",
                    "userId": null
                }
            ],
            "lastModifyTime": "2023-07-29 14:40:26"
        },
        {
            "postId": 36,
            "thumbImgUrl": null,
            "headerImgUrl": null,
            "title": "",
            "postTime": "2023-07-29 14:40:13",
            "content": "测试内容4测试内容4测试内容4测试内容4测试内容4测试内容4测试内容4测试内容4测试内容4测试内容4测试内容4测试内容4测试内容4测试内容4测试内容4测试内容4测试内容4测试内容4测试内容4",
            "summary": null,
            "originalURL": "",
            "postType": "0",
            "updateTime": "2023-07-29 14:40:13",
            "readTimes": 1,
            "likedTimes": 0,
            "commentTimes": 0,
            "userId": 2,
            "email": "admin@126.com",
            "nickName": "admin",
            "enableComment": "Y",
            "status": 4,
            "fileUploadEntities": [
                {
                    "id": 319,
                    "fileName": "1690612806614.jpg",
                    "displayName": "jellyfish-1507290",
                    "fileSuffix": "jpg",
                    "fileSize": 1461094,
                    "path": "C:\\nicefish\\upload\\1690612806614.jpg",
                    "url": null,
                    "fileDesc": null,
                    "displayOrder": 1,
                    "upTime": "2023-07-29 14:40:06",
                    "userId": null
                }
            ],
            "lastModifyTime": "2023-07-29 14:40:13"
        },
        {
            "postId": 35,
            "thumbImgUrl": null,
            "headerImgUrl": null,
            "title": "",
            "postTime": "2023-07-29 14:40:00",
            "content": "测试内容3测试内容3测试内容3测试内容3测试内容3测试内容3测试内容3测试内容3测试内容3测试内容3测试内容3测试内容3测试内容3测试内容3测试内容3测试内容3测试内容3测试内容3测试内容3测试内容3测试内容3测试内容3测试内容3测试内容3测试内容3测试内容3",
            "summary": null,
            "originalURL": "",
            "postType": "0",
            "updateTime": "2023-07-29 14:40:00",
            "readTimes": 1,
            "likedTimes": 0,
            "commentTimes": 0,
            "userId": 2,
            "email": "admin@126.com",
            "nickName": "admin",
            "enableComment": "Y",
            "status": 4,
            "fileUploadEntities": [
                {
                    "id": 318,
                    "fileName": "1690612792114.jpg",
                    "displayName": "door-1552484",
                    "fileSuffix": "jpg",
                    "fileSize": 1022575,
                    "path": "C:\\nicefish\\upload\\1690612792114.jpg",
                    "url": null,
                    "fileDesc": null,
                    "displayOrder": 1,
                    "upTime": "2023-07-29 14:39:52",
                    "userId": null
                }
            ],
            "lastModifyTime": "2023-07-29 14:40:00"
        },
        {
            "postId": 34,
            "thumbImgUrl": null,
            "headerImgUrl": null,
            "title": "",
            "postTime": "2023-07-29 14:39:45",
            "content": "测试内容2测试内容2测试内容2测试内容2测试内容2测试内容2测试内容2测试内容2测试内容2测试内容2测试内容2测试内容2测试内容2测试内容2测试内容2测试内容2测试内容2测试内容2测试内容2测试内容2测试内容2测试内容2测试内容2测试内容2测试内容2测试内容2测试内容2测试内容2测试内容2测试内容2测试内容2测试内容2测试内容2",
            "summary": null,
            "originalURL": "",
            "postType": "0",
            "updateTime": "2023-07-29 14:39:45",
            "readTimes": 1,
            "likedTimes": 0,
            "commentTimes": 0,
            "userId": 2,
            "email": "admin@126.com",
            "nickName": "admin",
            "enableComment": "Y",
            "status": 4,
            "fileUploadEntities": [
                {
                    "id": 317,
                    "fileName": "1690612779212.jpg",
                    "displayName": "door-1192256",
                    "fileSuffix": "jpg",
                    "fileSize": 2515675,
                    "path": "C:\\nicefish\\upload\\1690612779212.jpg",
                    "url": null,
                    "fileDesc": null,
                    "displayOrder": 1,
                    "upTime": "2023-07-29 14:39:39",
                    "userId": null
                }
            ],
            "lastModifyTime": "2023-07-29 14:39:45"
        },
        {
            "postId": 33,
            "thumbImgUrl": null,
            "headerImgUrl": null,
            "title": "",
            "postTime": "2023-07-29 14:39:33",
            "content": "测试内容1测试内容1测试内容1测试内容1测试内容1测试内容1测试内容1测试内容1测试内容1测试内容1测试内容1测试内容1测试内容1测试内容1测试内容1测试内容1测试内容1测试内容1",
            "summary": null,
            "originalURL": "",
            "postType": "0",
            "updateTime": "2023-07-29 14:39:33",
            "readTimes": 1,
            "likedTimes": 0,
            "commentTimes": 0,
            "userId": 2,
            "email": "admin@126.com",
            "nickName": "admin",
            "enableComment": "Y",
            "status": 4,
            "fileUploadEntities": [
                {
                    "id": 316,
                    "fileName": "1690612766124.jpg",
                    "displayName": "brotherhood-at-sunset-1-1244631",
                    "fileSuffix": "jpg",
                    "fileSize": 501147,
                    "path": "C:\\nicefish\\upload\\1690612766124.jpg",
                    "url": null,
                    "fileDesc": null,
                    "displayOrder": 1,
                    "upTime": "2023-07-29 14:39:26",
                    "userId": null
                }
            ],
            "lastModifyTime": "2023-07-29 14:39:33"
        }
    ],
    "pageable": {
        "sort": {
            "empty": false,
            "unsorted": false,
            "sorted": true
        },
        "offset": 20,
        "pageNumber": 1,
        "pageSize": 20,
        "unpaged": false,
        "paged": true
    },
    "totalElements": 40,
    "totalPages": 2,
    "last": true,
    "size": 20,
    "number": 1,
    "sort": {
        "empty": false,
        "unsorted": false,
        "sorted": true
    },
    "first": false,
    "numberOfElements": 20,
    "empty": false
}